  ___  ______ _____   _____       _                           
 / _ \ | ___ \_   _| |  __ \     | |                          
/ /_\ \| |_/ / | |   | |  \/ __ _| |_ _____      ____ _ _   _ 
|  _  ||  __/  | |   | | __ / _` | __/ _ \ \ /\ / / _` | | | |
| | | || |    _| |_  | |_\ \ (_| | ||  __/\ V  V / (_| | |_| |
\_| |_/\_|    \___/   \____/\__,_|\__\___| \_/\_/ \__,_|\__, |
                                                         __/ |
                                                        |___/ 